<svg 
 xmlns="http://www.w3.org/2000/svg"
 xmlns:xlink="http://www.w3.org/1999/xlink"
 width="20px" height="22px">
<path fill-rule="evenodd"  fill="rgb(86, 86, 86)"
 d="M14.406,22.000 L14.406,6.531 L20.000,6.531 L20.000,22.000 L14.406,22.000 ZM7.187,-0.000 L12.812,-0.000 L12.812,22.000 L7.187,22.000 L7.187,-0.000 ZM-0.000,10.594 L5.594,10.594 L5.594,22.000 L-0.000,22.000 L-0.000,10.594 Z"/>
</svg>